-------------------------------------------------------------------------------
Test set: com.jruby.app.AppTest
-------------------------------------------------------------------------------
Tests run: 2, Failures: 0, Errors: 0, Skipped: 0, Time elapsed: 7.891 sec
